{
    "key": "group_5a3bafdbbcc84",
    "title": "Main Category Page Layout",
    "fields": [
        {
            "key": "field_5a3bafdbc24e4",
            "label": "Sections",
            "name": "sections",
            "type": "flexible_content",
            "value": null,
            "instructions": "",
            "required": 0,
            "conditional_logic": 0,
            "wrapper": {
                "width": "",
                "class": "",
                "id": ""
            },
            "layouts": {
                "5a12d6aa8b0e5": {
                    "key": "5a12d6aa8b0e5",
                    "name": "carousel",
                    "label": "Carousel",
                    "display": "block",
                    "sub_fields": [
                        {
                            "key": "field_5a3bafdbc4a3f",
                            "label": "Number of stories",
                            "name": "number_of_stories",
                            "type": "number",
                            "value": null,
                            "instructions": "",
                            "required": 0,
                            "conditional_logic": 0,
                            "wrapper": {
                                "width": "",
                                "class": "",
                                "id": ""
                            },
                            "default_value": 5,
                            "placeholder": "",
                            "prepend": "",
                            "append": "",
                            "min": "",
                            "max": "",
                            "step": ""
                        }
                    ],
                    "min": "",
                    "max": ""
                },
                "5a12da0579682": {
                    "key": "5a12da0579682",
                    "name": "weekly_specials",
                    "label": "Weekly specials",
                    "display": "block",
                    "sub_fields": [
                        {
                            "key": "field_5a3bafdbc4b4a",
                            "label": "Section title",
                            "name": "section_title",
                            "type": "text",
                            "value": null,
                            "instructions": "",
                            "required": 0,
                            "conditional_logic": 0,
                            "wrapper": {
                                "width": "",
                                "class": "",
                                "id": ""
                            },
                            "default_value": "Weekly Specials",
                            "placeholder": "",
                            "prepend": "",
                            "append": "",
                            "maxlength": ""
                        },
                        {
                            "key": "field_5a3bafdbc4bf3",
                            "label": "Section subtitle",
                            "name": "section_subtitle",
                            "type": "text",
                            "value": null,
                            "instructions": "",
                            "required": 0,
                            "conditional_logic": 0,
                            "wrapper": {
                                "width": "",
                                "class": "",
                                "id": ""
                            },
                            "default_value": "Interactives, videos etc.",
                            "placeholder": "",
                            "prepend": "",
                            "append": "",
                            "maxlength": ""
                        },
                        {
                            "key": "field_5a3bafdbc4c6d",
                            "label": "Section content",
                            "name": "section_content",
                            "type": "repeater",
                            "value": null,
                            "instructions": "",
                            "required": 0,
                            "conditional_logic": 0,
                            "wrapper": {
                                "width": "",
                                "class": "",
                                "id": ""
                            },
                            "collapsed": "",
                            "min": 2,
                            "max": 2,
                            "layout": "table",
                            "button_label": "",
                            "sub_fields": [
                                {
                                    "key": "field_5a3bafdbcbacb",
                                    "label": "Title",
                                    "name": "title",
                                    "type": "text",
                                    "value": null,
                                    "instructions": "",
                                    "required": 0,
                                    "conditional_logic": 0,
                                    "wrapper": {
                                        "width": "",
                                        "class": "",
                                        "id": ""
                                    },
                                    "default_value": "",
                                    "placeholder": "",
                                    "prepend": "",
                                    "append": "",
                                    "maxlength": ""
                                },
                                {
                                    "key": "field_5a3bafdbcbb53",
                                    "label": "Image",
                                    "name": "image",
                                    "type": "image",
                                    "value": null,
                                    "instructions": "",
                                    "required": 0,
                                    "conditional_logic": 0,
                                    "wrapper": {
                                        "width": "",
                                        "class": "",
                                        "id": ""
                                    },
                                    "return_format": "array",
                                    "preview_size": "thumbnail",
                                    "library": "all",
                                    "min_width": "",
                                    "min_height": "",
                                    "min_size": "",
                                    "max_width": "",
                                    "max_height": "",
                                    "max_size": "",
                                    "mime_types": ""
                                },
                                {
                                    "key": "field_5a3bafdbcc06d",
                                    "label": "Link",
                                    "name": "link",
                                    "type": "url",
                                    "value": null,
                                    "instructions": "",
                                    "required": 0,
                                    "conditional_logic": 0,
                                    "wrapper": {
                                        "width": "",
                                        "class": "",
                                        "id": ""
                                    },
                                    "default_value": "",
                                    "placeholder": ""
                                }
                            ]
                        }
                    ],
                    "min": "",
                    "max": ""
                },
                "5a12da2579684": {
                    "key": "5a12da2579684",
                    "name": "top_sections",
                    "label": "Top categories",
                    "display": "block",
                    "sub_fields": [
                        {
                            "key": "field_5a3bafdbc4d2f",
                            "label": "Section title",
                            "name": "section_title",
                            "type": "text",
                            "value": null,
                            "instructions": "",
                            "required": 0,
                            "conditional_logic": 0,
                            "wrapper": {
                                "width": "",
                                "class": "",
                                "id": ""
                            },
                            "default_value": "Top Sections",
                            "placeholder": "",
                            "prepend": "",
                            "append": "",
                            "maxlength": ""
                        },
                        {
                            "key": "field_5a3bafdbc4da9",
                            "label": "Section subtitle",
                            "name": "section_subtitle",
                            "type": "text",
                            "value": null,
                            "instructions": "",
                            "required": 0,
                            "conditional_logic": 0,
                            "wrapper": {
                                "width": "",
                                "class": "",
                                "id": ""
                            },
                            "default_value": "",
                            "placeholder": "",
                            "prepend": "",
                            "append": "",
                            "maxlength": ""
                        },
                        {
                            "key": "field_5a3bafdbc4e51",
                            "label": "Categories",
                            "name": "categories",
                            "type": "taxonomy",
                            "value": null,
                            "instructions": "",
                            "required": 0,
                            "conditional_logic": 0,
                            "wrapper": {
                                "width": "",
                                "class": "",
                                "id": ""
                            },
                            "taxonomy": "category",
                            "field_type": "multi_select",
                            "allow_null": 0,
                            "add_term": 0,
                            "save_terms": 0,
                            "load_terms": 0,
                            "return_format": "object",
                            "multiple": 0
                        }
                    ],
                    "min": "",
                    "max": ""
                },
                "5a12da4179686": {
                    "key": "5a12da4179686",
                    "name": "donate_section",
                    "label": "Donate Section",
                    "display": "block",
                    "sub_fields": [
                        {
                            "key": "field_5a3bafdbc4ecc",
                            "label": "Image",
                            "name": "image",
                            "type": "image",
                            "value": null,
                            "instructions": "",
                            "required": 0,
                            "conditional_logic": 0,
                            "wrapper": {
                                "width": "",
                                "class": "",
                                "id": ""
                            },
                            "return_format": "array",
                            "preview_size": "thumbnail",
                            "library": "all",
                            "min_width": "",
                            "min_height": "",
                            "min_size": "",
                            "max_width": "",
                            "max_height": "",
                            "max_size": "",
                            "mime_types": ""
                        },
                        {
                            "key": "field_5a3bafdbc4f8f",
                            "label": "Title",
                            "name": "title",
                            "type": "text",
                            "value": null,
                            "instructions": "",
                            "required": 0,
                            "conditional_logic": 0,
                            "wrapper": {
                                "width": "",
                                "class": "",
                                "id": ""
                            },
                            "default_value": "Support IndiaSpend’s award-winning investigative journalism.",
                            "placeholder": "",
                            "prepend": "",
                            "append": "",
                            "maxlength": ""
                        },
                        {
                            "key": "field_5a3bafdbc500a",
                            "label": "Description",
                            "name": "description",
                            "type": "textarea",
                            "value": null,
                            "instructions": "",
                            "required": 0,
                            "conditional_logic": 0,
                            "wrapper": {
                                "width": "",
                                "class": "",
                                "id": ""
                            },
                            "default_value": "Your tax-deductible contribution to IndiaSpend will help us, and other publications around the country, reveal critical stories that otherwise wouldn’t be told - stories that make a difference!",
                            "placeholder": "",
                            "maxlength": "",
                            "rows": "",
                            "new_lines": ""
                        }
                    ],
                    "min": "",
                    "max": ""
                },
                "5a12da7779688": {
                    "key": "5a12da7779688",
                    "name": "featured_data_viz",
                    "label": "Featured Data Viz",
                    "display": "block",
                    "sub_fields": [
                        {
                            "key": "field_5a3bafdbc50b5",
                            "label": "Section title",
                            "name": "section_title",
                            "type": "text",
                            "value": null,
                            "instructions": "",
                            "required": 0,
                            "conditional_logic": 0,
                            "wrapper": {
                                "width": "",
                                "class": "",
                                "id": ""
                            },
                            "default_value": "",
                            "placeholder": "",
                            "prepend": "",
                            "append": "",
                            "maxlength": ""
                        },
                        {
                            "key": "field_5a3bafdbc515e",
                            "label": "Section subtitle",
                            "name": "section_subtitle",
                            "type": "text",
                            "value": null,
                            "instructions": "",
                            "required": 0,
                            "conditional_logic": 0,
                            "wrapper": {
                                "width": "",
                                "class": "",
                                "id": ""
                            },
                            "default_value": "",
                            "placeholder": "",
                            "prepend": "",
                            "append": "",
                            "maxlength": ""
                        },
                        {
                            "key": "field_5a3bafdbc51f3",
                            "label": "Link",
                            "name": "link",
                            "type": "url",
                            "value": null,
                            "instructions": "",
                            "required": 0,
                            "conditional_logic": 0,
                            "wrapper": {
                                "width": "",
                                "class": "",
                                "id": ""
                            },
                            "default_value": "",
                            "placeholder": ""
                        },
                        {
                            "key": "field_5a3bafdbc5272",
                            "label": "Embed code",
                            "name": "embed_code",
                            "type": "textarea",
                            "value": null,
                            "instructions": "",
                            "required": 0,
                            "conditional_logic": 0,
                            "wrapper": {
                                "width": "",
                                "class": "",
                                "id": ""
                            },
                            "default_value": "",
                            "placeholder": "",
                            "maxlength": "",
                            "rows": "",
                            "new_lines": ""
                        },
                        {
                            "key": "field_5a3bafdbc5322",
                            "label": "Category",
                            "name": "category",
                            "type": "taxonomy",
                            "value": null,
                            "instructions": "",
                            "required": 0,
                            "conditional_logic": 0,
                            "wrapper": {
                                "width": "",
                                "class": "",
                                "id": ""
                            },
                            "taxonomy": "category",
                            "field_type": "select",
                            "allow_null": 0,
                            "add_term": 0,
                            "save_terms": 0,
                            "load_terms": 0,
                            "return_format": "id",
                            "multiple": 0
                        }
                    ],
                    "min": "",
                    "max": ""
                },
                "5a12dc9a7968b": {
                    "key": "5a12dc9a7968b",
                    "name": "latest_stories",
                    "label": "Latest Stories",
                    "display": "block",
                    "sub_fields": [
                        {
                            "key": "field_5a3bafdbc53d0",
                            "label": "Section title",
                            "name": "section_title",
                            "type": "text",
                            "value": null,
                            "instructions": "",
                            "required": 0,
                            "conditional_logic": 0,
                            "wrapper": {
                                "width": "",
                                "class": "",
                                "id": ""
                            },
                            "default_value": "Latest Stories",
                            "placeholder": "",
                            "prepend": "",
                            "append": "",
                            "maxlength": ""
                        },
                        {
                            "key": "field_5a3bafdbc545f",
                            "label": "Section subtitle",
                            "name": "section_subtitle",
                            "type": "text",
                            "value": null,
                            "instructions": "",
                            "required": 0,
                            "conditional_logic": 0,
                            "wrapper": {
                                "width": "",
                                "class": "",
                                "id": ""
                            },
                            "default_value": "",
                            "placeholder": "",
                            "prepend": "",
                            "append": "",
                            "maxlength": ""
                        },
                        {
                            "key": "field_5a3bafdbc5504",
                            "label": "Max number of stories",
                            "name": "max_number_of_stories",
                            "type": "number",
                            "value": null,
                            "instructions": "",
                            "required": 0,
                            "conditional_logic": 0,
                            "wrapper": {
                                "width": "",
                                "class": "",
                                "id": ""
                            },
                            "default_value": 5,
                            "placeholder": "",
                            "prepend": "",
                            "append": "",
                            "min": "",
                            "max": "",
                            "step": ""
                        }
                    ],
                    "min": "",
                    "max": ""
                }
            },
            "button_label": "Add Row",
            "min": 0,
            "max": 6
        }
    ],
    "location": [
        [
            {
                "param": "taxonomy",
                "operator": "==",
                "value": "category"
            }
        ]
    ],
    "menu_order": 0,
    "position": "normal",
    "style": "default",
    "label_placement": "top",
    "instruction_placement": "label",
    "hide_on_screen": "",
    "active": 1,
    "description": "",
    "modified": 1513864076
}