{
    "key": "group_5a0d51d3c0a9c",
    "title": "Post Content",
    "fields": [
        {
            "key": "field_5a0d51ddedef9",
            "label": "Content",
            "name": "content",
            "type": "flexible_content",
            "value": null,
            "instructions": "",
            "required": 1,
            "conditional_logic": 0,
            "wrapper": {
                "width": "",
                "class": "",
                "id": ""
            },
            "layouts": {
                "5a0d51efc3a66": {
                    "key": "5a0d51efc3a66",
                    "name": "text",
                    "label": "Text and Media",
                    "display": "block",
                    "sub_fields": [
                        {
                            "key": "field_5a0d5206edefa",
                            "label": "Text",
                            "name": "text",
                            "type": "wysiwyg",
                            "value": null,
                            "instructions": "",
                            "required": 0,
                            "conditional_logic": 0,
                            "wrapper": {
                                "width": "",
                                "class": "",
                                "id": ""
                            },
                            "default_value": "",
                            "tabs": "all",
                            "toolbar": "full",
                            "media_upload": 1,
                            "delay": 0
                        }
                    ],
                    "min": "",
                    "max": ""
                },
                "5a0d5298edefc": {
                    "key": "5a0d5298edefc",
                    "name": "dataviz_embed",
                    "label": "DataViz Embed",
                    "display": "block",
                    "sub_fields": [
                        {
                            "key": "field_5a1e9e18362e0",
                            "label": "Desktop",
                            "name": "",
                            "type": "tab",
                            "instructions": "",
                            "required": 0,
                            "conditional_logic": 0,
                            "wrapper": {
                                "width": "",
                                "class": "",
                                "id": ""
                            },
                            "placement": "top",
                            "endpoint": 0
                        },
                        {
                            "key": "field_5a0d52aaedefd",
                            "label": "Embed Code",
                            "name": "desktop_embed_code",
                            "type": "textarea",
                            "value": null,
                            "instructions": "",
                            "required": 0,
                            "conditional_logic": 0,
                            "wrapper": {
                                "width": "",
                                "class": "",
                                "id": ""
                            },
                            "default_value": "",
                            "placeholder": "",
                            "maxlength": "",
                            "rows": "",
                            "new_lines": ""
                        },
                        {
                            "key": "field_5a1e9e2b362e1",
                            "label": "Tablet",
                            "name": "",
                            "type": "tab",
                            "instructions": "",
                            "required": 0,
                            "conditional_logic": 0,
                            "wrapper": {
                                "width": "",
                                "class": "",
                                "id": ""
                            },
                            "placement": "top",
                            "endpoint": 0
                        },
                        {
                            "key": "field_5a0e93523ed0a",
                            "label": "Embed Code",
                            "name": "tablet_embed_code",
                            "type": "textarea",
                            "value": null,
                            "instructions": "",
                            "required": 0,
                            "conditional_logic": 0,
                            "wrapper": {
                                "width": "",
                                "class": "",
                                "id": ""
                            },
                            "default_value": "",
                            "placeholder": "",
                            "maxlength": "",
                            "rows": "",
                            "new_lines": ""
                        },
                        {
                            "key": "field_5a1e9e3d362e2",
                            "label": "Mobile",
                            "name": "",
                            "type": "tab",
                            "instructions": "",
                            "required": 0,
                            "conditional_logic": 0,
                            "wrapper": {
                                "width": "",
                                "class": "",
                                "id": ""
                            },
                            "placement": "top",
                            "endpoint": 0
                        },
                        {
                            "key": "field_5a0e93a73ed0c",
                            "label": "Embed Code",
                            "name": "mobile_embed_code",
                            "type": "textarea",
                            "value": null,
                            "instructions": "",
                            "required": 0,
                            "conditional_logic": 0,
                            "wrapper": {
                                "width": "",
                                "class": "",
                                "id": ""
                            },
                            "default_value": "",
                            "placeholder": "",
                            "maxlength": "",
                            "rows": "",
                            "new_lines": ""
                        },
                        {
                            "key": "field_5a1e9e62362e3",
                            "label": "Source \/ Note",
                            "name": "",
                            "type": "tab",
                            "instructions": "",
                            "required": 0,
                            "conditional_logic": 0,
                            "wrapper": {
                                "width": "",
                                "class": "",
                                "id": ""
                            },
                            "placement": "top",
                            "endpoint": 0
                        },
                        {
                            "key": "field_5a0e8dab429ae",
                            "label": "Source \/ Note",
                            "name": "source",
                            "type": "wysiwyg",
                            "value": null,
                            "instructions": "",
                            "required": 0,
                            "conditional_logic": 0,
                            "wrapper": {
                                "width": "",
                                "class": "",
                                "id": ""
                            },
                            "default_value": "",
                            "tabs": "all",
                            "toolbar": "basic",
                            "media_upload": 1,
                            "delay": 0
                        }
                    ],
                    "min": "",
                    "max": ""
                }
            },
            "button_label": "Add Row",
            "min": "",
            "max": ""
        }
    ],
    "location": [
        [
            {
                "param": "post_type",
                "operator": "==",
                "value": "post"
            }
        ]
    ],
    "menu_order": 0,
    "position": "normal",
    "style": "default",
    "label_placement": "top",
    "instruction_placement": "label",
    "hide_on_screen": "",
    "active": 1,
    "description": "",
    "modified": 1514291367
}